{
  "users": [
    {
      "id": "1",
      "username": "emilstu",
      "avatar": "",
      "history": [],
      "loggedIn": false
    },
    {
      "username": "Suup",
      "avatar": "",
      "history": [],
      "loggedIn": true,
      "id": "b-20_-V"
    },
    {
      "username": "Emil ",
      "avatar": "",
      "history": [],
      "loggedIn": true,
      "id": "47gNlrB"
    },
    {
      "username": "satan",
      "avatar": "",
      "history": [],
      "loggedIn": true,
      "id": "_xvCUyi"
    }
  ]
}